{
  "content": [
    {
      "id": 1,
      "title": "Type A",
      "description": "Description A",
      "color": "#FF0000",
      "isOnlyGlobal": false,
      "parentId": null
    },
    {
      "id": 2,
      "title": "Type B",
      "description": "Description B",
      "color": "#00FF00",
      "isOnlyGlobal": true,
      "parentId": null
    }
  ],
  "pageable": {
    "pageNumber": 0,
    "pageSize": 2,
    "sort": {
      "empty": false,
      "sorted": true,
      "unsorted": false
    },
    "offset": 0,
    "paged": true,
    "unpaged": false
  },
  "last": false,
  "totalPages": 2,
  "totalElements": 4,
  "first": true,
  "size": 2,
  "number": 0,
  "sort": {
    "empty": false,
    "sorted": true,
    "unsorted": false
  },
  "numberOfElements": 2,
  "empty": false
}
