{
  "content": [
    {
      "id": 1,
      "title": "title1",
      "description": "description1",
      "color": "color1",
      "objectTypeId": null,
      "objectType": null
    },
    {
      "id": 2,
      "title": "title2",
      "description": "description2",
      "color": "color2",
      "objectTypeId": null,
      "objectType": null
    }
  ],
  "pageable": {
    "pageNumber": 0,
    "pageSize": 2,
    "sort": {
      "empty": false,
      "sorted": true,
      "unsorted": false
    },
    "offset": 0,
    "paged": true,
    "unpaged": false
  },
  "last": false,
  "totalPages": 2,
  "totalElements": 3,
  "size": 2,
  "number": 0,
  "sort": {
    "empty": false,
    "sorted": true,
    "unsorted": false
  },
  "first": true,
  "numberOfElements": 2,
  "empty": false
}
