{
  "content": [
    {
      "id": 2,
      "title": "test2",
      "description": "chat gubi kontekst2",
      "creationDate": null,
      "lastModificationDate": null
    }
  ],
  "pageable": {
    "pageNumber": 1,
    "pageSize": 1,
    "sort": {
      "empty": true,
      "sorted": false,
      "unsorted": true
    },
    "offset": 1,
    "paged": true,
    "unpaged": false
  },
  "last": true,
  "totalPages": 2,
  "totalElements": 2,
  "first": false,
  "size": 1,
  "number": 1,
  "sort": {
    "empty": true,
    "sorted": false,
    "unsorted": true
  },
  "numberOfElements": 1,
  "empty": false
}
